%YAML 1.1
%TAG !u! tag:unity3d.com,2011:
--- !u!114 &11400000
MonoBehaviour:
  m_ObjectHideFlags: 0
  m_CorrespondingSourceObject: {fileID: 0}
  m_PrefabInstance: {fileID: 0}
  m_PrefabAsset: {fileID: 0}
  m_GameObject: {fileID: 0}
  m_Enabled: 1
  m_EditorHideFlags: 0
  m_Script: {fileID: 11500000, guid: 18c171306f47b3c4d8df774b62128100, type: 3}
  m_Name: John M.-belladone
  m_EditorClassIdentifier: 
  postItName: Plante inconnu
  position: {x: -791.326, y: 380.6967, z: 0}
  PostItImage: {fileID: 0}
